{"count":1089,"next":"https://pokeapi.co/api/v2/location-area/?offset=60&limit=20","previous":"https://pokeapi.co/api/v2/location-area/?offset=20&limit=20","results":[{"name":"solaceon-ruins-b3f-d","url":"https://pokeapi.co/api/v2/location-area/41/"},{"name":"solaceon-ruins-b3f-e","url":"https://pokeapi.co/api/v2/location-area/42/"},{"name":"solaceon-ruins-b4f-a","url":"https://pokeapi.co/api/v2/location-area/43/"},{"name":"solaceon-ruins-b4f-b","url":"https://pokeapi.co/api/v2/location-area/44/"},{"name":"solaceon-ruins-b4f-c","url":"https://pokeapi.co/api/v2/location-area/45/"},{"name":"solaceon-ruins-b4f-d","url":"https://pokeapi.co/api/v2/location-area/46/"},{"name":"solaceon-ruins-b5f","url":"https://pokeapi.co/api/v2/location-area/47/"},{"name":"sinnoh-victory-road-1f","url":"https://pokeapi.co/api/v2/location-area/48/"},{"name":"sinnoh-victory-road-2f","url":"https://pokeapi.co/api/v2/location-area/49/"},{"name":"sinnoh-victory-road-b1f","url":"https://pokeapi.co/api/v2/location-area/50/"},{"name":"sinnoh-victory-road-inside-b1f","url":"https://pokeapi.co/api/v2/location-area/51/"},{"name":"sinnoh-victory-road-inside","url":"https://pokeapi.co/api/v2/location-area/52/"},{"name":"sinnoh-victory-road-inside-exit","url":"https://pokeapi.co/api/v2/location-area/53/"},{"name":"ravaged-path-area","url":"https://pokeapi.co/api/v2/location-area/54/"},{"name":"oreburgh-gate-1f","url":"https://pokeapi.co/api/v2/location-area/55/"},{"name":"oreburgh-gate-b1f","url":"https://pokeapi.co/api/v2/location-area/56/"},{"name":"stark-mountain-area","url":"https://pokeapi.co/api/v2/location-area/57/"},{"name":"stark-mountain-entrance","url":"https://pokeapi.co/api/v2/location-area/58/"},{"name":"stark-mountain-inside","url":"https://pokeapi.co/api/v2/location-area/59/"},{"name":"sendoff-spring-area","url":"https://pokeapi.co/api/v2/location-area/60/"}]}